Aula2 – Aulas
…
             Milton Galvino 

Importar arquivos locais

Arquivos do tipo excel são carregados usando funções específicas de pacotes. Um dos pacotes disponíveis é o readxl

library(readxl)

#Dados em excel
meudado <- read_excel("dados_diversos.xlsx","coffee rust") #Adicionando uma                                                                     vírgula,você indica qual                                                             aba do excel abrirá
                    
meudado

# A tibble: 405 × 13
    farm region zone       district      lon   lat altitude cultivar shade    
   <dbl> <chr>  <chr>      <chr>       <dbl> <dbl>    <dbl> <chr>    <chr>    
 1     1 SNNPR  Bench Maji Debub Bench  35.4  6.90     1100 Local    Sun      
 2     2 SNNPR  Bench Maji Debub Bench  35.4  6.90     1342 Mixture  Mid shade
 3     3 SNNPR  Bench Maji Debub Bench  35.4  6.90     1434 Mixture  Mid shade
 4     4 SNNPR  Bench Maji Debub Bench  35.4  6.90     1100 Local    Sun      
 5     5 SNNPR  Bench Maji Debub Bench  35.4  6.90     1400 Local    Sun      
 6     6 SNNPR  Bench Maji Debub Bench  35.4  6.90     1342 Mixture  Mid shade
 7     7 SNNPR  Bench Maji Debub Bench  35.4  6.90     1432 Mixture  Mid shade
 8     8 SNNPR  Bench Maji Debub Bench  35.4  6.90     1100 Local    Sun      
 9     9 SNNPR  Bench Maji Debub Bench  35.4  6.89     1400 Local    Sun      
10    10 SNNPR  Bench Maji Debub Bench  35.4  6.88     1342 Mixture  Mid shade
# ℹ 395 more rows
# ℹ 4 more variables: cropping_system <chr>, farm_management <chr>, inc <dbl>,
#   sev2 <dbl>
…
#Importar arquivos da nuvem da planilha Google

#Dados em nuvem
library(gsheet)

meudadonuvem <- gsheet2tbl("https://docs.google.com/spreadsheets/d/1bq2N19DcZdtax2fQW9OHSGMR0X2__Z9T/edit?gid=1110310360#gid=1110310360")

meudadonuvem

# A tibble: 30 × 3
   trat            t   sev
   <chr>       <dbl> <dbl>
 1 Gotejamento     0   1.1
 2 Gotejamento     7   3.7
 3 Gotejamento    14  10.7
 4 Gotejamento    21  11.6
 5 Gotejamento    28  15.3
 6 Gotejamento    35  18.1
 7 Gotejamento    42  32.4
 8 Gotejamento    49  35.4
 9 Gotejamento    56  41.9
10 Gotejamento    63  43.4
# ℹ 20 more rows

curve <- gsheet2tbl("https://docs.google.com/spreadsheets/d/1bq2N19DcZdtax2fQW9OHSGMR0X2__Z9T/edit?gid=1807247585#gid=1807247585")

curve

# A tibble: 60 × 4
   Irrigation   rep   day severity
   <chr>      <dbl> <dbl>    <dbl>
 1 Furrow         1     0     0.01
 2 Furrow         2     0     0.01
 3 Furrow         3     0     0.01
 4 Furrow         1     7     0.04
 5 Furrow         2     7     0.04
 6 Furrow         3     7     0.04
 7 Furrow         1    14     0.1 
 8 Furrow         2    14     0.1 
 9 Furrow         3    14     0.11
10 Furrow         1    21     0.11
# ℹ 50 more rows
…
# Criar uma lista com todos os dados baixados
# O lapply percorre cada ID e aplica a função gsheet2tbl
lista_dados <- lapply(abas, function(id) gsheet2tbl(paste0(url_base, id)))

# 3. (Opcional) Se quiser os objetos soltos no ambiente como antes:
list2env(lista_dados, envir = .GlobalEnv)

<environment: R_GlobalEnv>

lista_dados

$meudadonuvem
# A tibble: 30 × 3
   trat            t   sev
   <chr>       <dbl> <dbl>
 1 Gotejamento     0   1.1
 2 Gotejamento     7   3.7
 3 Gotejamento    14  10.7
 4 Gotejamento    21  11.6
 5 Gotejamento    28  15.3
 6 Gotejamento    35  18.1
 7 Gotejamento    42  32.4
 8 Gotejamento    49  35.4
 9 Gotejamento    56  41.9
10 Gotejamento    63  43.4
# ℹ 20 more rows

$curve
# A tibble: 60 × 4
   Irrigation   rep   day severity
   <chr>      <dbl> <dbl>    <dbl>
 1 Furrow         1     0     0.01
 2 Furrow         2     0     0.01
 3 Furrow         3     0     0.01
 4 Furrow         1     7     0.04
 5 Furrow         2     7     0.04
 6 Furrow         3     7     0.04
 7 Furrow         1    14     0.1 
 8 Furrow         2    14     0.1 
 9 Furrow         3    14     0.11
10 Furrow         1    21     0.11
# ℹ 50 more rows
…
lista_dados[["meudadonuvem"]]

# A tibble: 30 × 3
   trat            t   sev
   <chr>       <dbl> <dbl>
 1 Gotejamento     0   1.1
 2 Gotejamento     7   3.7
 3 Gotejamento    14  10.7
 4 Gotejamento    21  11.6
 5 Gotejamento    28  15.3
 6 Gotejamento    35  18.1
 7 Gotejamento    42  32.4
 8 Gotejamento    49  35.4
 9 Gotejamento    56  41.9
10 Gotejamento    63  43.4
# ℹ 20 more rows

lista_dados[["curve"]]

# A tibble: 60 × 4
   Irrigation   rep   day severity
   <chr>      <dbl> <dbl>    <dbl>
 1 Furrow         1     0     0.01
 2 Furrow         2     0     0.01
 3 Furrow         3     0     0.01
 4 Furrow         1     7     0.04
 5 Furrow         2     7     0.04
 6 Furrow         3     7     0.04
 7 Furrow         1    14     0.1 
 8 Furrow         2    14     0.1 
 9 Furrow         3    14     0.11
10 Furrow         1    21     0.11
# ℹ 50 more rows
…
dados <- software # atribuir o data frame ao objeto "dados"

dados_longos <- dados |>    #Atribuir a função ao objeto dados longos
  pivot_longer(             #Função para mesclar as colunas em uma só
    cols = c(Assess, LeafDoctor, ImageJ), #Quais colunas vão ser mescladas
    names_to = "software",              #Qual o nome da coluna a ser formada
    values_to = "severidade")           #O nome da coluna "resposta" dos dados
    
  dados_longos

# A tibble: 210 × 4
   crop    rep software   severidade
   <chr> <dbl> <chr>           <dbl>
 1 Rosa     21 Assess          20.0 
 2 Rosa     21 LeafDoctor      31.6 
 3 Rosa     21 ImageJ          26.0 
 4 Rosa     22 Assess           4.77
 5 Rosa     22 LeafDoctor      13.5 
 6 Rosa     22 ImageJ           5.16
 7 Rosa     23 Assess          72.1 
 8 Rosa     23 LeafDoctor      77.6 
 9 Rosa     23 ImageJ          69.5 
10 Rosa     24 Assess          81.4 
# ℹ 200 more rows
…
Verbos do dplyr

Separar os dados em uma planilha

Assess <- software |>       #Atribuir ao objeto "Assess" a função usando o objeto "software" como base
  select(crop, rep, Assess) #Selecionar as colunas desejadas

Assess

# A tibble: 70 × 3
   crop    rep Assess
   <chr> <dbl>  <dbl>
 1 Rosa     21  20.0 
 2 Rosa     22   4.77
 3 Rosa     23  72.1 
 4 Rosa     24  81.4 
 5 Rosa     25  25.8 
 6 Rosa     26  80.4 
 7 Rosa     27  81.7 
 8 Rosa     28   7.02
 9 Rosa     29  11.2 
10 Rosa     30  79.1 
# ℹ 60 more rows

Assess2 <- dados_longos |> #Atribuir ao objeto "Assess2" a função usando o objeto "dados_longos" como base
  filter(software=="Assess") #Selecionar dentro da coluna "software" somente as linhas que
#contenham "Assess" 

Assess2

# A tibble: 70 × 4
   crop    rep software severidade
   <chr> <dbl> <chr>         <dbl>
 1 Rosa     21 Assess        20.0 
 2 Rosa     22 Assess         4.77
 3 Rosa     23 Assess        72.1 
 4 Rosa     24 Assess        81.4 
 5 Rosa     25 Assess        25.8 
 6 Rosa     26 Assess        80.4 
 7 Rosa     27 Assess        81.7 
 8 Rosa     28 Assess         7.02
 9 Rosa     29 Assess        11.2 
10 Rosa     30 Assess        79.1 
# ℹ 60 more rows

imageJ <- dados_longos |> #Atribuir ao objeto "ImageJ" a função usando o objeto "dados_longos" como base
  filter(software=="ImageJ") #Selecionar dentro da coluna "software" somente as linhas que
#contenham "ImageJ" 

imageJ

# A tibble: 70 × 4
   crop    rep software severidade
   <chr> <dbl> <chr>         <dbl>
 1 Rosa     21 ImageJ        26.0 
 2 Rosa     22 ImageJ         5.16
 3 Rosa     23 ImageJ        69.5 
 4 Rosa     24 ImageJ        82.7 
 5 Rosa     25 ImageJ        13.1 
 6 Rosa     26 ImageJ        69.9 
 7 Rosa     27 ImageJ        88.7 
 8 Rosa     28 ImageJ         6.4 
 9 Rosa     29 ImageJ        10.8 
10 Rosa     30 ImageJ        78.2 
# ℹ 60 more rows

LeafDoctor <- dados_longos |> #Atribuir ao objeto "LeafDoctor" a função usando o objeto "dados_longos" como base
  filter(software=="LeafDoctor") #Selecionar dentro da coluna "software" somente as linhas que
#contenham "LeafDoctor" 

LeafDoctor

# A tibble: 70 × 4
   crop    rep software   severidade
   <chr> <dbl> <chr>           <dbl>
 1 Rosa     21 LeafDoctor       31.6
 2 Rosa     22 LeafDoctor       13.5
 3 Rosa     23 LeafDoctor       77.6
 4 Rosa     24 LeafDoctor       90.8
 5 Rosa     25 LeafDoctor       24.5
 6 Rosa     26 LeafDoctor       73.8
 7 Rosa     27 LeafDoctor       86.8
 8 Rosa     28 LeafDoctor       14.0
 9 Rosa     29 LeafDoctor       16.0
10 Rosa     30 LeafDoctor       77.0
# ℹ 60 more rows
…
